{
  "type": "oregrowth:ore_growth",
  "base": "techreborn:deepslate_peridot_ore",
  "stages": 4,
  "spawn_chance": 0.2,
  "growth_chance": 0.3,
  "result": {
    "item": "techreborn:peridot_ore",
    "count": 1
  }
}
